50 3
8 68 984
747 60 1241
811 78 56
1760 58 1558
860 16 319
1549 28 927
1010 96 749
738 37 844
599 20 1170
446 53 1509
1363 36 19
1277 14 685
1574 98 1472
1886 3 1571
591 21 1587
714 25 1490
1881 43 1647
983 62 514
858 8 1215
634 7 587
784 14 1897
1893 22 1878
308 89 1039
1892 91 1815
1024 75 1602
1467 59 378
1830 3 1173
167 25 702
357 3 416
1739 68 71
1810 58 1220
453 62 393
462 60 22
332 25 1512
845 96 1176
522 80 513
1110 61 1854
484 32 570
545 91 274
64 67 74
90 9 1423
1013 67 1567
1509 86 878
238 12 285
1226 23 1767
83 35 22
626 97 63
6 24 707
507 31 1294
638 98 1528

SchragePmtn:
3820

Natural:
5476
1 2 3 4 5 6 7 8 9 10 11 12 13 14 15 16 17 18 19 20 21 22 23 24 25 26 27 28 29 30 31 32 33 34 35 36 37 38 39 40 41 42 43 44 45 46 47 48 49 50

SortR:
4361
48 1 40 46 41 28 44 23 34 29 10 32 33 38 49 36 39 15 9 47 20 50 16 8 2 21 3 35 19 5 18 7 42 25 37 45 12 11 26 43 6 13 30 4 31 27 17 14 24 22

Schrage:
3862
48 1 41 40 28 46 44 23 34 29 10 38 49 36 15 50 16 21 2 19 35 9 8 42 25 37 7 45 12 20 18 32 26 43 13 6 5 4 31 17 22 24 14 27 39 30 47 3 33 11

SortRQ:
3821
48 1 40 46 41 28 44 23 34 29 10 32 33 38 49 36 39 15 9 47 20 50 16 8 2 21 3 35 19 5 18 7 42 25 37 22 24 45 17 14 4 13 31 27 6 43 12 26 30 11

Pottsa:
3822
48 1 41 40 28 46 44 23 34 29 10 38 49 36 15 50 16 21 2 19 35 9 8 42 25 37 7 45 12 20 18 32 26 43 13 6 5 4 31 14 22 24 17 27 39 30 47 3 33 11

CarCut100:
3821
48 1 41 40 28 46 44 23 34 29 10 38 49 36 15 50 16 21 2 19 35 9 8 42 25 37 7 45 12 20 18 32 26 43 13 6 5 4 31 22 24 17 14 27 39 30 47 3 33 11

Carlier:
3821
48 1 41 40 28 46 44 23 34 29 10 38 49 36 15 50 16 21 2 19 35 9 8 42 25 37 7 45 12 20 18 32 26 43 13 6 5 4 31 22 24 17 14 27 39 30 47 3 33 11
