\relax 
\providecommand\hyper@newdestlabel[2]{}
\providecommand\HyperFirstAtBeginDocument{\AtBeginDocument}
\HyperFirstAtBeginDocument{\ifx\hyper@anchor\@undefined
\global\let\oldcontentsline\contentsline
\gdef\contentsline#1#2#3#4{\oldcontentsline{#1}{#2}{#3}}
\global\let\oldnewlabel\newlabel
\gdef\newlabel#1#2{\newlabelxx{#1}#2}
\gdef\newlabelxx#1#2#3#4#5#6{\oldnewlabel{#1}{{#2}{#3}}}
\AtEndDocument{\ifx\hyper@anchor\@undefined
\let\contentsline\oldcontentsline
\let\newlabel\oldnewlabel
\fi}
\fi}
\global\let\hyper@last\relax 
\gdef\HyperFirstAtBeginDocument#1{#1}
\providecommand\HyField@AuxAddToFields[1]{}
\providecommand\HyField@AuxAddToCoFields[2]{}
\@writefile{toc}{\contentsline {section}{\numberline {1.}Imi\IeC {\k e} Nazwisko os\IeC {\'o}b nale\IeC {\.z}\IeC {\k a}cych do grupy}{1}{section.1}}
\@writefile{toc}{\contentsline {section}{\numberline {2.}Termin oddania + okres sp\IeC {\'o}\IeC {\'z}nienia}{1}{section.2}}
\@writefile{toc}{\contentsline {section}{\numberline {3.}Numer \IeC {\'c}wiczenia}{1}{section.3}}
\@writefile{toc}{\contentsline {section}{\numberline {4.} Suma d\IeC {\l }ugo\IeC {\'s}ci uszeregowa\IeC {\'n} i ka\IeC {\.z}dego z osobna (np. 100+200+300=600)}{1}{section.4}}
\@writefile{toc}{\contentsline {section}{\numberline {5.}Sugerowana ocena z uwzgl\IeC {\k e}dnieniem sp\IeC {\'o}\IeC {\'z}nienia}{1}{section.5}}
